# 3ds Max Wavefront OBJ Exporter v0.97b - (c)2007 guruware
# File Created: 13.11.2015 14:40:03

newmtl wire_135006006
	Ns 32.0000
	Ni 1.5000
	d 1.0000
	Tr 0.0000
	Tf 1.0000 1.0000 1.0000 
	illum 2
	Ka 0.5294 0.0235 0.0235
	Kd 0.5294 0.0235 0.0235
	Ks 0.3500 0.3500 0.3500
	Ke 0.0000 0.0000 0.0000
	map_Ka WoodFine0011_S.png
	map_Kd WoodFine0011_S.png
