^\\UEAHOME4\STUSCI2\GEU13WRU\DATA\DOCUMENTS\YEAR 3\GRAPHICS2\07 OBJ LOADING WITH GLM V2\DEBUG\BOUNDINGBOX.OBJ|\\UEAHOME4\STUSCI2\GEU13WRU\DATA\DOCUMENTS\YEAR 3\GRAPHICS2\07 OBJ LOADING WITH GLM V2\DEBUG\BOX.OBJ|\\UEAHOME4\STUSCI2\GEU13WRU\DATA\DOCUMENTS\YEAR 3\GRAPHICS2\07 OBJ LOADING WITH GLM V2\DEBUG\CAMERA.OBJ|\\UEAHOME4\STUSCI2\GEU13WRU\DATA\DOCUMENTS\YEAR 3\GRAPHICS2\07 OBJ LOADING WITH GLM V2\DEBUG\CONSOLE.OBJ|\\UEAHOME4\STUSCI2\GEU13WRU\DATA\DOCUMENTS\YEAR 3\GRAPHICS2\07 OBJ LOADING WITH GLM V2\DEBUG\CUBE.OBJ|\\UEAHOME4\STUSCI2\GEU13WRU\DATA\DOCUMENTS\YEAR 3\GRAPHICS2\07 OBJ LOADING WITH GLM V2\DEBUG\IMAGELOADERPNG.OBJ|\\UEAHOME4\STUSCI2\GEU13WRU\DATA\DOCUMENTS\YEAR 3\GRAPHICS2\07 OBJ LOADING WITH GLM V2\DEBUG\INTERSECTIONTESTS.OBJ|\\UEAHOME4\STUSCI2\GEU13WRU\DATA\DOCUMENTS\YEAR 3\GRAPHICS2\07 OBJ LOADING WITH GLM V2\DEBUG\MAIN.OBJ|\\UEAHOME4\STUSCI2\GEU13WRU\DATA\DOCUMENTS\YEAR 3\GRAPHICS2\07 OBJ LOADING WITH GLM V2\DEBUG\OBJLOADER.OBJ|\\UEAHOME4\STUSCI2\GEU13WRU\DATA\DOCUMENTS\YEAR 3\GRAPHICS2\07 OBJ LOADING WITH GLM V2\DEBUG\OCTREE.OBJ|\\UEAHOME4\STUSCI2\GEU13WRU\DATA\DOCUMENTS\YEAR 3\GRAPHICS2\07 OBJ LOADING WITH GLM V2\DEBUG\PLANE.OBJ|\\UEAHOME4\STUSCI2\GEU13WRU\DATA\DOCUMENTS\YEAR 3\GRAPHICS2\07 OBJ LOADING WITH GLM V2\DEBUG\SHADER.OBJ|\\UEAHOME4\STUSCI2\GEU13WRU\DATA\DOCUMENTS\YEAR 3\GRAPHICS2\07 OBJ LOADING WITH GLM V2\DEBUG\TEXTUREHANDLER.OBJ|\\UEAHOME4\STUSCI2\GEU13WRU\DATA\DOCUMENTS\YEAR 3\GRAPHICS2\07 OBJ LOADING WITH GLM V2\DEBUG\THREEDMODEL.OBJ|\\UEAHOME4\STUSCI2\GEU13WRU\DATA\DOCUMENTS\YEAR 3\GRAPHICS2\07 OBJ LOADING WITH GLM V2\DEBUG\VECTOR2D.OBJ|\\UEAHOME4\STUSCI2\GEU13WRU\DATA\DOCUMENTS\YEAR 3\GRAPHICS2\07 OBJ LOADING WITH GLM V2\DEBUG\VECTOR3D.OBJ
C:\PROGRAM FILES (X86)\MICROSOFT SDKS\WINDOWS\V7.0A\LIB\OPENGL32.LIB
C:\PROGRAM FILES (X86)\MICROSOFT SDKS\WINDOWS\V7.0A\LIB\GLU32.LIB
\\UEAHOME4\STUSCI2\GEU13WRU\DATA\DOCUMENTS\YEAR 3\GRAPHICS2\07 OBJ LOADING WITH GLM V2\GLEW32.LIB
\\UEAHOME4\STUSCI2\GEU13WRU\DATA\DOCUMENTS\YEAR 3\GRAPHICS2\07 OBJ LOADING WITH GLM V2\NVIMAGE.LIB
C:\PROGRAM FILES (X86)\MICROSOFT SDKS\WINDOWS\V7.0A\LIB\KERNEL32.LIB
C:\PROGRAM FILES (X86)\MICROSOFT SDKS\WINDOWS\V7.0A\LIB\USER32.LIB
C:\PROGRAM FILES (X86)\MICROSOFT SDKS\WINDOWS\V7.0A\LIB\GDI32.LIB
C:\PROGRAM FILES (X86)\MICROSOFT SDKS\WINDOWS\V7.0A\LIB\WINSPOOL.LIB
C:\PROGRAM FILES (X86)\MICROSOFT SDKS\WINDOWS\V7.0A\LIB\COMDLG32.LIB
C:\PROGRAM FILES (X86)\MICROSOFT SDKS\WINDOWS\V7.0A\LIB\ADVAPI32.LIB
C:\PROGRAM FILES (X86)\MICROSOFT SDKS\WINDOWS\V7.0A\LIB\SHELL32.LIB
C:\PROGRAM FILES (X86)\MICROSOFT SDKS\WINDOWS\V7.0A\LIB\OLE32.LIB
C:\PROGRAM FILES (X86)\MICROSOFT SDKS\WINDOWS\V7.0A\LIB\OLEAUT32.LIB
C:\PROGRAM FILES (X86)\MICROSOFT SDKS\WINDOWS\V7.0A\LIB\UUID.LIB
C:\PROGRAM FILES (X86)\MICROSOFT SDKS\WINDOWS\V7.0A\LIB\ODBC32.LIB
C:\PROGRAM FILES (X86)\MICROSOFT SDKS\WINDOWS\V7.0A\LIB\ODBCCP32.LIB
\\UEAHOME4\STUSCI2\GEU13WRU\DATA\DOCUMENTS\YEAR 3\GRAPHICS2\07 OBJ LOADING WITH GLM V2\DEBUG\BOUNDINGBOX.OBJ
\\UEAHOME4\STUSCI2\GEU13WRU\DATA\DOCUMENTS\YEAR 3\GRAPHICS2\07 OBJ LOADING WITH GLM V2\DEBUG\THREEDMODEL.OBJ
\\UEAHOME4\STUSCI2\GEU13WRU\DATA\DOCUMENTS\YEAR 3\GRAPHICS2\07 OBJ LOADING WITH GLM V2\DEBUG\BOX.OBJ
\\UEAHOME4\STUSCI2\GEU13WRU\DATA\DOCUMENTS\YEAR 3\GRAPHICS2\07 OBJ LOADING WITH GLM V2\DEBUG\CAMERA.OBJ
\\UEAHOME4\STUSCI2\GEU13WRU\DATA\DOCUMENTS\YEAR 3\GRAPHICS2\07 OBJ LOADING WITH GLM V2\DEBUG\CONSOLE.OBJ
\\UEAHOME4\STUSCI2\GEU13WRU\DATA\DOCUMENTS\YEAR 3\GRAPHICS2\07 OBJ LOADING WITH GLM V2\DEBUG\CUBE.OBJ
\\UEAHOME4\STUSCI2\GEU13WRU\DATA\DOCUMENTS\YEAR 3\GRAPHICS2\07 OBJ LOADING WITH GLM V2\DEBUG\MAIN.OBJ
\\UEAHOME4\STUSCI2\GEU13WRU\DATA\DOCUMENTS\YEAR 3\GRAPHICS2\07 OBJ LOADING WITH GLM V2\DEBUG\IMAGELOADERPNG.OBJ
\\UEAHOME4\STUSCI2\GEU13WRU\DATA\DOCUMENTS\YEAR 3\GRAPHICS2\07 OBJ LOADING WITH GLM V2\DEBUG\OBJLOADER.OBJ
\\UEAHOME4\STUSCI2\GEU13WRU\DATA\DOCUMENTS\YEAR 3\GRAPHICS2\07 OBJ LOADING WITH GLM V2\DEBUG\OCTREE.OBJ
\\UEAHOME4\STUSCI2\GEU13WRU\DATA\DOCUMENTS\YEAR 3\GRAPHICS2\07 OBJ LOADING WITH GLM V2\DEBUG\PLANE.OBJ
\\UEAHOME4\STUSCI2\GEU13WRU\DATA\DOCUMENTS\YEAR 3\GRAPHICS2\07 OBJ LOADING WITH GLM V2\DEBUG\VECTOR2D.OBJ
\\UEAHOME4\STUSCI2\GEU13WRU\DATA\DOCUMENTS\YEAR 3\GRAPHICS2\07 OBJ LOADING WITH GLM V2\DEBUG\VECTOR3D.OBJ
\\UEAHOME4\STUSCI2\GEU13WRU\DATA\DOCUMENTS\YEAR 3\GRAPHICS2\07 OBJ LOADING WITH GLM V2\DEBUG\TEXTUREHANDLER.OBJ
\\UEAHOME4\STUSCI2\GEU13WRU\DATA\DOCUMENTS\YEAR 3\GRAPHICS2\07 OBJ LOADING WITH GLM V2\DEBUG\INTERSECTIONTESTS.OBJ
\\UEAHOME4\STUSCI2\GEU13WRU\DATA\DOCUMENTS\YEAR 3\GRAPHICS2\07 OBJ LOADING WITH GLM V2\DEBUG\SHADER.OBJ
C:\WINDOWS\GLOBALIZATION\SORTING\SORTDEFAULT.NLS
C:\PROGRAM FILES (X86)\MICROSOFT VISUAL STUDIO 10.0\VC\BIN\1033\LINKUI.DLL
C:\PROGRAM FILES (X86)\MICROSOFT VISUAL STUDIO 10.0\VC\LIB\MSVCPRTD.LIB
C:\PROGRAM FILES (X86)\MICROSOFT VISUAL STUDIO 10.0\VC\LIB\MSVCRTD.LIB
C:\PROGRAM FILES (X86)\MICROSOFT VISUAL STUDIO 10.0\VC\LIB\OLDNAMES.LIB
C:\WINDOWS\SYSTEM32\TZRES.DLL
^E:\UNI\YEAR3\GRAPHICS2\07 OBJ LOADING WITH GLM V2\DEBUG\BOUNDINGBOX.OBJ|E:\UNI\YEAR3\GRAPHICS2\07 OBJ LOADING WITH GLM V2\DEBUG\BOX.OBJ|E:\UNI\YEAR3\GRAPHICS2\07 OBJ LOADING WITH GLM V2\DEBUG\CAMERA.OBJ|E:\UNI\YEAR3\GRAPHICS2\07 OBJ LOADING WITH GLM V2\DEBUG\COLLISIONS.OBJ|E:\UNI\YEAR3\GRAPHICS2\07 OBJ LOADING WITH GLM V2\DEBUG\CONSOLE.OBJ|E:\UNI\YEAR3\GRAPHICS2\07 OBJ LOADING WITH GLM V2\DEBUG\IMAGELOADERPNG.OBJ|E:\UNI\YEAR3\GRAPHICS2\07 OBJ LOADING WITH GLM V2\DEBUG\INTERSECTIONTESTS.OBJ|E:\UNI\YEAR3\GRAPHICS2\07 OBJ LOADING WITH GLM V2\DEBUG\MAIN.OBJ|E:\UNI\YEAR3\GRAPHICS2\07 OBJ LOADING WITH GLM V2\DEBUG\OBJLOADER.OBJ|E:\UNI\YEAR3\GRAPHICS2\07 OBJ LOADING WITH GLM V2\DEBUG\OCTREE.OBJ|E:\UNI\YEAR3\GRAPHICS2\07 OBJ LOADING WITH GLM V2\DEBUG\PLANE.OBJ|E:\UNI\YEAR3\GRAPHICS2\07 OBJ LOADING WITH GLM V2\DEBUG\SHADER.OBJ|E:\UNI\YEAR3\GRAPHICS2\07 OBJ LOADING WITH GLM V2\DEBUG\SPHERE.OBJ|E:\UNI\YEAR3\GRAPHICS2\07 OBJ LOADING WITH GLM V2\DEBUG\TEXTUREHANDLER.OBJ|E:\UNI\YEAR3\GRAPHICS2\07 OBJ LOADING WITH GLM V2\DEBUG\THREEDMODEL.OBJ|E:\UNI\YEAR3\GRAPHICS2\07 OBJ LOADING WITH GLM V2\DEBUG\VECTOR2D.OBJ|E:\UNI\YEAR3\GRAPHICS2\07 OBJ LOADING WITH GLM V2\DEBUG\VECTOR3D.OBJ
C:\PROGRAM FILES (X86)\WINDOWS KITS\8.0\LIB\WIN8\UM\X86\OPENGL32.LIB
C:\PROGRAM FILES (X86)\WINDOWS KITS\8.0\LIB\WIN8\UM\X86\GLU32.LIB
E:\UNI\YEAR3\GRAPHICS2\07 OBJ LOADING WITH GLM V2\GLEW32.LIB
E:\UNI\YEAR3\GRAPHICS2\07 OBJ LOADING WITH GLM V2\NVIMAGE.LIB
C:\PROGRAM FILES (X86)\WINDOWS KITS\8.0\LIB\WIN8\UM\X86\KERNEL32.LIB
C:\PROGRAM FILES (X86)\WINDOWS KITS\8.0\LIB\WIN8\UM\X86\USER32.LIB
C:\PROGRAM FILES (X86)\WINDOWS KITS\8.0\LIB\WIN8\UM\X86\GDI32.LIB
C:\PROGRAM FILES (X86)\WINDOWS KITS\8.0\LIB\WIN8\UM\X86\WINSPOOL.LIB
C:\PROGRAM FILES (X86)\WINDOWS KITS\8.0\LIB\WIN8\UM\X86\COMDLG32.LIB
C:\PROGRAM FILES (X86)\WINDOWS KITS\8.0\LIB\WIN8\UM\X86\ADVAPI32.LIB
C:\PROGRAM FILES (X86)\WINDOWS KITS\8.0\LIB\WIN8\UM\X86\SHELL32.LIB
C:\PROGRAM FILES (X86)\WINDOWS KITS\8.0\LIB\WIN8\UM\X86\OLE32.LIB
C:\PROGRAM FILES (X86)\WINDOWS KITS\8.0\LIB\WIN8\UM\X86\OLEAUT32.LIB
C:\PROGRAM FILES (X86)\WINDOWS KITS\8.0\LIB\WIN8\UM\X86\UUID.LIB
C:\PROGRAM FILES (X86)\WINDOWS KITS\8.0\LIB\WIN8\UM\X86\ODBC32.LIB
C:\PROGRAM FILES (X86)\WINDOWS KITS\8.0\LIB\WIN8\UM\X86\ODBCCP32.LIB
E:\UNI\YEAR3\GRAPHICS2\07 OBJ LOADING WITH GLM V2\DEBUG\BOUNDINGBOX.OBJ
E:\UNI\YEAR3\GRAPHICS2\07 OBJ LOADING WITH GLM V2\DEBUG\THREEDMODEL.OBJ
E:\UNI\YEAR3\GRAPHICS2\07 OBJ LOADING WITH GLM V2\DEBUG\BOX.OBJ
E:\UNI\YEAR3\GRAPHICS2\07 OBJ LOADING WITH GLM V2\DEBUG\CAMERA.OBJ
E:\UNI\YEAR3\GRAPHICS2\07 OBJ LOADING WITH GLM V2\DEBUG\COLLISIONS.OBJ
E:\UNI\YEAR3\GRAPHICS2\07 OBJ LOADING WITH GLM V2\DEBUG\CONSOLE.OBJ
E:\UNI\YEAR3\GRAPHICS2\07 OBJ LOADING WITH GLM V2\DEBUG\MAIN.OBJ
E:\UNI\YEAR3\GRAPHICS2\07 OBJ LOADING WITH GLM V2\DEBUG\IMAGELOADERPNG.OBJ
E:\UNI\YEAR3\GRAPHICS2\07 OBJ LOADING WITH GLM V2\DEBUG\OBJLOADER.OBJ
E:\UNI\YEAR3\GRAPHICS2\07 OBJ LOADING WITH GLM V2\DEBUG\OCTREE.OBJ
E:\UNI\YEAR3\GRAPHICS2\07 OBJ LOADING WITH GLM V2\DEBUG\PLANE.OBJ
E:\UNI\YEAR3\GRAPHICS2\07 OBJ LOADING WITH GLM V2\DEBUG\SPHERE.OBJ
E:\UNI\YEAR3\GRAPHICS2\07 OBJ LOADING WITH GLM V2\DEBUG\VECTOR2D.OBJ
E:\UNI\YEAR3\GRAPHICS2\07 OBJ LOADING WITH GLM V2\DEBUG\VECTOR3D.OBJ
E:\UNI\YEAR3\GRAPHICS2\07 OBJ LOADING WITH GLM V2\DEBUG\TEXTUREHANDLER.OBJ
E:\UNI\YEAR3\GRAPHICS2\07 OBJ LOADING WITH GLM V2\DEBUG\INTERSECTIONTESTS.OBJ
E:\UNI\YEAR3\GRAPHICS2\07 OBJ LOADING WITH GLM V2\DEBUG\SHADER.OBJ
C:\WINDOWS\GLOBALIZATION\SORTING\SORTDEFAULT.NLS
C:\PROGRAM FILES (X86)\MICROSOFT VISUAL STUDIO 11.0\VC\BIN\1033\LINKUI.DLL
C:\PROGRAM FILES (X86)\MICROSOFT VISUAL STUDIO 11.0\VC\LIB\MSVCPRTD.LIB
C:\PROGRAM FILES (X86)\MICROSOFT VISUAL STUDIO 11.0\VC\LIB\MSVCRTD.LIB
C:\PROGRAM FILES (X86)\MICROSOFT VISUAL STUDIO 11.0\VC\LIB\OLDNAMES.LIB
C:\PROGRAM FILES (X86)\WINDOWS KITS\8.0\BIN\X86\RC.EXE
C:\PROGRAM FILES (X86)\MICROSOFT VISUAL STUDIO 11.0\VC\BIN\CVTRES.EXE
C:\WINDOWS\SYSTEM32\TZRES.DLL
