^\\UEAHOME4\STUSCI2\GEU13WRU\DATA\DOCUMENTS\YEAR 3\GRAPHICS2\07 OBJ LOADING WITH GLM V2\DEBUG\OBJLOADINGWIN32.EXE.INTERMEDIATE.MANIFEST
C:\WINDOWS\MICROSOFT.NET\FRAMEWORK\V2.0.50727\MSCORWKS.DLL
C:\WINDOWS\MICROSOFT.NET\FRAMEWORK\V4.0.30319\CLR.DLL
C:\PROGRAM FILES (X86)\MICROSOFT SDKS\WINDOWS\V7.0A\BIN\MT.EXE.CONFIG
\\UEAHOME4\STUSCI2\GEU13WRU\DATA\DOCUMENTS\YEAR 3\GRAPHICS2\07 OBJ LOADING WITH GLM V2\DEBUG\OBJLOADINGWIN32.EXE
